﻿{
  "profiles": {
    "Otus.Teaching.PromocodeFactory.SignalR": {
      "commandName": "Project",
      "launchBrowser": true,
      "launchUrl": "",
      "environmentVariables": {
        "ASPNETCORE_ENVIRONMENT": "Development"
      },
      "applicationUrl": "https://localhost:7002;http://localhost:7001"
    }
  }
}